…
The DALY burden over time for Nigeria, Tanzania, and the DRC shows a
consistent decline across all three countries from 1990 to 2019. Nigeria
and Tanzania exhibit a more pronounced and steady reduction in DALY
rates, reflecting significant progress in managing non-communicable
diseases. The DRC, while also showing a downward trend, has a higher and
more fluctuating DALY burden, indicating ongoing challenges in improving
public health outcomes.

# Overall Disease Burden

\##Personal

## Table of Estimates for Overall Disease Burden Over Time

    ## # A tibble: 90 × 5
    ##    code   year `Democratic Republic of Congo` Nigeria Tanzania
    ##    <chr> <dbl>                          <dbl>   <dbl>    <dbl>
    ##  1 COD    1990                         83323.      NA       NA
    ##  2 COD    1991                         83534.      NA       NA
    ##  3 COD    1992                         83579.      NA       NA
    ##  4 COD    1993                         84212.      NA       NA
    ##  5 COD    1994                         84807.      NA       NA
    ##  6 COD    1995                         84849.      NA       NA
    ##  7 COD    1996                         90220.      NA       NA
    ##  8 COD    1997                         86665.      NA       NA
    ##  9 COD    1998                         85784.      NA       NA
    ## 10 COD    1999                         84962.      NA       NA
    ## # ℹ 80 more rows
…
